1945-02-28
1957-11-25
2005-05-30
1949-03-08
1983-03-30
1996-08-13
1953-03-23
1930-03-15
1998-08-31
1944-04-18
1985-04-02
1951-08-15
1918-06-25
1946-04-05
1916-02-11
1985-06-03
1917-09-02
1998-11-23
1981-04-24
1931-03-20
1921-04-24
1976-12-15
1989-07-26
1928-05-19
2014-11-06
1948-07-18
1951-01-18
1943-12-04
1959-01-30
1961-07-18
2019-11-03
1992-10-01
1921-06-09
1934-01-21
1938-03-25
2006-10-02
1965-10-06
1933-08-17
1919-11-20
1914-09-18
2013-11-12
1955-05-25
1968-05-01
1936-09-03
2003-09-13
1990-12-15
1950-09-03
1958-07-09
1951-01-07
1943-11-27
2018-11-06
1916-03-14
2004-05-08
1970-07-01
2005-10-22
1956-09-01
1938-10-14
1942-12-05
1993-03-01
1929-06-03
1997-12-07
2019-10-28
1996-12-22
1921-08-25
1997-12-04
1930-07-19
1983-10-26
1968-06-23
1936-12-31
1985-10-10
1977-09-19
1945-06-18
1976-09-28
1931-07-11
2011-06-08
2003-10-21
1962-12-05
2016-05-14
2014-06-22
1928-07-29
1927-01-14
1942-02-02
1955-01-05
1981-05-17
1923-03-14
2009-02-16
1921-02-07
1991-09-09
1987-12-22
1995-04-29
1991-07-28
2016-07-25
1917-04-01
1925-05-10
1924-01-03
1959-03-17
1994-04-08
2017-07-19
1991-08-13
2017-04-19
