it\tn\unitn\pw\progetto\SSN\DAO\persistence\SSProvinciale_DAO.class
it\tn\unitn\pw\progetto\SSN\servlet\srv_MainFarmacia.class
it\tn\unitn\pw\progetto\SSN\filter\AuthenticationCittadino.class
it\tn\unitn\pw\progetto\SSN\DAO\persistence\Farmaco_DAO.class
it\tn\unitn\pw\progetto\SSN\DAO\persistence\jdbc\JDBC_Foto_DAO.class
it\tn\unitn\pw\progetto\SSN\servlet\srv_MainMedicoSpec.class
it\tn\unitn\pw\progetto\SSN\Genera\PDF\Ticket.class
it\tn\unitn\pw\progetto\SSN\services\EsamiPazienteService$Results.class
it\tn\unitn\pw\progetto\SSN\filter\AuthenticationSSProvinciale.class
it\tn\unitn\pw\progetto\SSN\filter\Visita_Filter.class
it\tn\unitn\pw\progetto\SSN\services\TipoEsameService.class
it\tn\unitn\pw\progetto\SSN\DAO\persistence\jdbc\JDBC_Persona_DAO.class
it\tn\unitn\pw\progetto\SSN\DAO\common\exception\DAOFactoryException.class
it\tn\unitn\pw\progetto\SSN\persistence\entities\CartellaClinicaPerMB.class
it\tn\unitn\pw\progetto\SSN\services\TipoEsameService$Results.class
it\tn\unitn\pw\progetto\SSN\filter\AuthenticationFarmacia.class
it\tn\unitn\pw\progetto\SSN\persistence\entities\Persona.class
it\tn\unitn\pw\progetto\SSN\services\FarmaciService.class
it\tn\unitn\pw\progetto\SSN\servlet\srv_ScriviEmail.class
it\tn\unitn\pw\progetto\SSN\DAO\common\DAO.class
it\tn\unitn\pw\progetto\SSN\filter\AuthenticationMedicoSpec.class
it\tn\unitn\pw\progetto\SSN\DAO\persistence\jdbc\JDBC_MedicoSpec_DAO.class
it\tn\unitn\pw\progetto\SSN\DAO\persistence\Ricetta_DAO.class
it\tn\unitn\pw\progetto\SSN\Genera\XLS\Xls.class
it\tn\unitn\pw\progetto\SSN\DAO\persistence\VisitaMSEReport_DAO.class
it\tn\unitn\pw\progetto\SSN\persistence\entities\PrescrizioneEsameEReferto.class
it\tn\unitn\pw\progetto\SSN\servlet\srv_Index.class
it\tn\unitn\pw\progetto\SSN\DAO\common\exception\DAOException.class
it\tn\unitn\pw\progetto\SSN\DAO\persistence\jdbc\JDBC_Ricetta_DAO.class
it\tn\unitn\pw\progetto\SSN\servlet\srv_MB_Paziente.class
it\tn\unitn\pw\progetto\SSN\persistence\entities\MedicoSpec.class
it\tn\unitn\pw\progetto\SSN\DAO\persistence\jdbc\JDBC_MedicoBase_DAO.class
it\tn\unitn\pw\progetto\SSN\services\MedicoBaseService.class
it\tn\unitn\pw\progetto\SSN\filter\PazienteMB_Filter.class
it\tn\unitn\pw\progetto\SSN\persistence\entities\Foto.class
it\tn\unitn\pw\progetto\SSN\services\MedicoBaseService$Results.class
it\tn\unitn\pw\progetto\SSN\services\PazientiService$ResultsS2.class
it\tn\unitn\pw\progetto\SSN\DAO\common\factories\jdbc\JDBCDAOFactory.class
it\tn\unitn\pw\progetto\SSN\Genera\Email\Mail.class
it\tn\unitn\pw\progetto\SSN\services\ProvincieService$Provincie.class
it\tn\unitn\pw\progetto\SSN\listener\WebAppContextListener.class
it\tn\unitn\pw\progetto\SSN\DAO\persistence\MedicoBase_DAO.class
it\tn\unitn\pw\progetto\SSN\persistence\entities\MedicoBase.class
it\tn\unitn\pw\progetto\SSN\DAO\persistence\PrescrizioneEsameEReferto_DAO.class
it\tn\unitn\pw\progetto\SSN\DAO\common\persistence\dao\jdbc\JDBCDAO.class
it\tn\unitn\pw\progetto\SSN\DAO\persistence\CartellaClinicaPerMB_DAO.class
it\tn\unitn\pw\progetto\SSN\services\ProvincieService.class
it\tn\unitn\pw\progetto\SSN\services\PagamentiService$Results.class
it\tn\unitn\pw\progetto\SSN\servlet\srv_Visita.class
it\tn\unitn\pw\progetto\SSN\services\PazientiService$Paziente.class
it\tn\unitn\pw\progetto\SSN\services\VisitePazienteService.class
it\tn\unitn\pw\progetto\SSN\persistence\entities\Farmaco.class
it\tn\unitn\pw\progetto\SSN\servlet\srv_Far_Cliente.class
it\tn\unitn\pw\progetto\SSN\DAO\persistence\jdbc\JDBC_Esame_DAO.class
it\tn\unitn\pw\progetto\SSN\servlet\srv_XLS_RIcette.class
it\tn\unitn\pw\progetto\SSN\Genera\Email\Mail$3.class
it\tn\unitn\pw\progetto\SSN\filter\AuthenticationMedicoBase.class
it\tn\unitn\pw\progetto\SSN\servlet\srv_MainSSProvinciale.class
it\tn\unitn\pw\progetto\SSN\Genera\XLS\Ricette.class
it\tn\unitn\pw\progetto\SSN\services\ProvincieService$Results.class
it\tn\unitn\pw\progetto\SSN\filter\ClienteFar_Filter.class
it\tn\unitn\pw\progetto\SSN\services\MedicoBaseService$Medico.class
it\tn\unitn\pw\progetto\SSN\services\ApplicationConfig.class
it\tn\unitn\pw\progetto\SSN\servlet\srv_Logout.class
it\tn\unitn\pw\progetto\SSN\DAO\persistence\jdbc\JDBC_VisitaMSEReport_DAO.class
it\tn\unitn\pw\progetto\SSN\DAO\persistence\Persona_DAO.class
it\tn\unitn\pw\progetto\SSN\Genera\Email\Mail$2.class
it\tn\unitn\pw\progetto\SSN\filter\PazienteMS_Filter.class
it\tn\unitn\pw\progetto\SSN\servlet\srv_QR_Ricetta.class
it\tn\unitn\pw\progetto\SSN\filter\Ricetta_Filter.class
it\tn\unitn\pw\progetto\SSN\persistence\entities\VisitaMB.class
it\tn\unitn\pw\progetto\SSN\filter\Esame_Filter.class
it\tn\unitn\pw\progetto\SSN\servlet\srv_RichiediPassword.class
it\tn\unitn\pw\progetto\SSN\DAO\persistence\jdbc\JDBC_SSProvinciale_DAO.class
it\tn\unitn\pw\progetto\SSN\servlet\srv_Esami.class
it\tn\unitn\pw\progetto\SSN\servlet\srv_MainCittadino.class
it\tn\unitn\pw\progetto\SSN\DAO\persistence\MedicoSpec_DAO.class
it\tn\unitn\pw\progetto\SSN\services\VisitePazienteService$Results.class
it\tn\unitn\pw\progetto\SSN\Genera\PDF\CreatePDF.class
it\tn\unitn\pw\progetto\SSN\services\RicettaPazienteService$Results.class
it\tn\unitn\pw\progetto\SSN\servlet\srv_PDF_Ricette.class
it\tn\unitn\pw\progetto\SSN\persistence\entities\SSProvinciale.class
it\tn\unitn\pw\progetto\SSN\persistence\entities\Visita.class
it\tn\unitn\pw\progetto\SSN\services\FarmaciService$Results.class
it\tn\unitn\pw\progetto\SSN\filter\AuthenticationCookie.class
it\tn\unitn\pw\progetto\SSN\DAO\persistence\jdbc\JDBC_Farmacia_DAO.class
it\tn\unitn\pw\progetto\SSN\servlet\srv_Ricetta.class
it\tn\unitn\pw\progetto\SSN\services\PagamentiService.class
it\tn\unitn\pw\progetto\SSN\services\RicettaPazienteService.class
it\tn\unitn\pw\progetto\SSN\persistence\entities\VisitaMSEReport.class
it\tn\unitn\pw\progetto\SSN\servlet\srv_MainMedicoBase.class
it\tn\unitn\pw\progetto\SSN\persistence\entities\Farmacia.class
it\tn\unitn\pw\progetto\SSN\DAO\persistence\jdbc\JDBC_PrescrizioneEsameEReferto_DAO.class
it\tn\unitn\pw\progetto\SSN\Genera\Email\Mail$1.class
it\tn\unitn\pw\progetto\SSN\services\FarmaciService$FarmacoScelta.class
it\tn\unitn\pw\progetto\SSN\services\PazientiService.class
it\tn\unitn\pw\progetto\SSN\DAO\persistence\VisitaMB_DAO.class
it\tn\unitn\pw\progetto\SSN\DAO\persistence\Farmacia_DAO.class
it\tn\unitn\pw\progetto\SSN\persistence\entities\Esame.class
it\tn\unitn\pw\progetto\SSN\servlet\srv_Richiami.class
it\tn\unitn\pw\progetto\SSN\services\EsamiPazienteService.class
it\tn\unitn\pw\progetto\SSN\DAO\common\factory\DAOFactory.class
it\tn\unitn\pw\progetto\SSN\DAO\persistence\Esame_DAO.class
it\tn\unitn\pw\progetto\SSN\servlet\srv_MS_Paziente.class
it\tn\unitn\pw\progetto\SSN\DAO\persistence\jdbc\JDBC_CartellaClinicaPerMB_DAO.class
it\tn\unitn\pw\progetto\SSN\services\PazientiService$Results.class
it\tn\unitn\pw\progetto\SSN\DAO\persistence\jdbc\JDBC_Farmaco_DAO.class
it\tn\unitn\pw\progetto\SSN\persistence\entities\Ricetta.class
it\tn\unitn\pw\progetto\SSN\services\TipoEsameService$TipoEsame.class
it\tn\unitn\pw\progetto\SSN\DAO\persistence\Foto_DAO.class
it\tn\unitn\pw\progetto\SSN\DAO\persistence\jdbc\JDBC_VisitaMB_DAO.class
it\tn\unitn\pw\progetto\SSN\servlet\srv_PDF_ReportPagamenti.class
